{
  "data": [
    { "name": "bag", "id": "1" },
    { "name": "rod", "id": "2" },
    { "name": "book", "id": "3" },
    { "name": "computer", "id": "4" },
    { "name": "band", "id": "5" },
    { "name": "paper", "id": "2022-05-23T05:55:14.090Z" },
    { "name": "alex", "id": "2022-05-25T01:18:49.260Z" },
    { "name": "chair", "id": "2022-05-25T01:19:18.618Z" },
    { "name": "soccer", "id": "2022-05-27T01:09:52.047Z" },
    { "name": "board", "id": "2022-05-27T04:58:36.386Z" }
  ]
}
